{
  "data": [
    {
      "id": "1",
      "account_id": "1",
      "end_customer_client_id": "1",
      "collateral_name": "Andrey Bezruk",
      "collateral_identifier": "",
      "collateral_amount": "1000.00",
      "collateral_date": "2020-07-20",
      "collateral_due_date": "2020-07-20",
      "payout_date": "2020-07-20",
      "amount": "1000.00",
      "arrangement_fee_percentage": "19.9",
      "arrangement_fee_amount": "5.90",
      "payment_term_id": "1",
      "payout_amount": "1000.00",
      "created_at": "2019-12-02T20:01:00.283041Z",
      "updated_at": "2019-12-02T20:01:00.283041Z",
      "reference_number": "5 2345 78907",
      "approve_date": "2019-12-02T20:01:00.283041Z",
      "approve_user_id": "1",
      "pay_date": "2019-12-02T20:01:00.283041Z",
      "pay_user_id": "1",
      "extra_info": "{'invoiceAlreadyDelivered':true}",
      "attachments": [
        {
          "id": "1",
          "payout_id": "1",
          "filename": "attachment.pdf",
          "extension": "pdf",
          "mimetype": "application/pdf",
          "content": "Base64 Encoded string",
          "created_at": "2019-12-02T20:01:00.283041Z",
          "updated_at": "2019-12-02T20:01:00.283041Z"
        }
      ]
    },
    {
      "id": "1",
      "account_id": "1",
      "end_customer_client_id": "1",
      "collateral_name": "TheDruny",
      "collateral_identifier": "",
      "collateral_amount": "1000.00",
      "collateral_date": "2020-07-20",
      "collateral_due_date": "2020-07-20",
      "payout_date": "2020-07-20",
      "amount": "1000.00",
      "arrangement_fee_percentage": "19.9",
      "arrangement_fee_amount": "5.90",
      "payment_term_id": "1",
      "payout_amount": "1000.00",
      "created_at": "2019-12-02T20:01:00.283041Z",
      "updated_at": "2019-12-02T20:01:00.283041Z",
      "reference_number": "5 2345 78907",
      "approve_date": "2019-12-02T20:01:00.283041Z",
      "approve_user_id": "1",
      "pay_date": "2019-12-02T20:01:00.283041Z",
      "pay_user_id": "1",
      "extra_info": "{'invoiceAlreadyDelivered':true}",
      "attachments": [
        {
          "id": "1",
          "payout_id": "1",
          "filename": "attachment.pdf",
          "extension": "pdf",
          "mimetype": "application/pdf",
          "content": "Base64 Encoded string",
          "created_at": "2019-12-02T20:01:00.283041Z",
          "updated_at": "2019-12-02T20:01:00.283041Z"
        }
      ]
    },
    {
      "id": "1",
      "account_id": "1",
      "end_customer_client_id": "1",
      "collateral_name": "",
      "collateral_identifier": "",
      "collateral_amount": "1000.00",
      "collateral_date": "2020-07-20",
      "collateral_due_date": "2020-07-20",
      "payout_date": "2020-07-20",
      "amount": "1000.00",
      "arrangement_fee_percentage": "19.9",
      "arrangement_fee_amount": "5.90",
      "payment_term_id": "1",
      "payout_amount": "1000.00",
      "created_at": "2019-12-02T20:01:00.283041Z",
      "updated_at": "2019-12-02T20:01:00.283041Z",
      "reference_number": "1 23456 78907",
      "approve_date": "2019-12-02T20:01:00.283041Z",
      "approve_user_id": "1",
      "pay_date": "2019-12-02T20:01:00.283041Z",
      "pay_user_id": "1",
      "extra_info": "{'invoiceAlreadyDelivered':true}",
      "attachments": [
        {
          "id": "1",
          "payout_id": "1",
          "filename": "attachment.pdf",
          "extension": "pdf",
          "mimetype": "application/pdf",
          "content": "Base64 Encoded string",
          "created_at": "2019-12-02T20:01:00.283041Z",
          "updated_at": "2019-12-02T20:01:00.283041Z"
        }
      ]
    },
    {
      "id": "1",
      "account_id": "1",
      "end_customer_client_id": "1",
      "collateral_name": "",
      "collateral_identifier": "",
      "collateral_amount": "1000.00",
      "collateral_date": "2020-07-20",
      "collateral_due_date": "2020-07-20",
      "payout_date": "2020-07-20",
      "amount": "1000.00",
      "arrangement_fee_percentage": "19.9",
      "arrangement_fee_amount": "5.90",
      "payment_term_id": "1",
      "payout_amount": "1000.00",
      "created_at": "2019-12-02T20:01:00.283041Z",
      "updated_at": "2019-12-02T20:01:00.283041Z",
      "reference_number": "1 23456 78907",
      "approve_date": "2019-12-02T20:01:00.283041Z",
      "approve_user_id": "1",
      "pay_date": "2019-12-02T20:01:00.283041Z",
      "pay_user_id": "1",
      "extra_info": "{'invoiceAlreadyDelivered':true}",
      "attachments": [
        {
          "id": "1",
          "payout_id": "1",
          "filename": "attachment.pdf",
          "extension": "pdf",
          "mimetype": "application/pdf",
          "content": "Base64 Encoded string",
          "created_at": "2019-12-02T20:01:00.283041Z",
          "updated_at": "2019-12-02T20:01:00.283041Z"
        }
      ]
    },
    {
      "id": "1",
      "account_id": "1",
      "end_customer_client_id": "1",
      "collateral_name": "",
      "collateral_identifier": "",
      "collateral_amount": "1000.00",
      "collateral_date": "2020-07-20",
      "collateral_due_date": "2020-07-20",
      "payout_date": "2020-07-20",
      "amount": "1000.00",
      "arrangement_fee_percentage": "19.9",
      "arrangement_fee_amount": "5.90",
      "payment_term_id": "1",
      "payout_amount": "1000.00",
      "created_at": "2019-12-02T20:01:00.283041Z",
      "updated_at": "2019-12-02T20:01:00.283041Z",
      "reference_number": "1 23456 78907",
      "approve_date": "2019-12-02T20:01:00.283041Z",
      "approve_user_id": "1",
      "pay_date": "2019-12-02T20:01:00.283041Z",
      "pay_user_id": "1",
      "extra_info": "{'invoiceAlreadyDelivered':true}",
      "attachments": [
        {
          "id": "1",
          "payout_id": "1",
          "filename": "attachment.pdf",
          "extension": "pdf",
          "mimetype": "application/pdf",
          "content": "Base64 Encoded string",
          "created_at": "2019-12-02T20:01:00.283041Z",
          "updated_at": "2019-12-02T20:01:00.283041Z"
        }
      ]
    }
  ],
  "loans": [
    {
      "id": "4",
      "start_date": "2020-06-21",
      "end_date": "2021-06-20",
      "duration_months": "12",
      "client_id": "3",
      "payout_limit": "100.10",
      "interest_day_rule": "days360",
      "arrangement_fee_percentage": "10.00",
      "arrangement_fee_fixed": "10.90",
      "arrangement_fee_type": "add",
      "handling_fee": "9.90",
      "nominal_interest": "2.5",
      "margin_interest": "5.5",
      "delay_interest": "15.5",
      "extra_payout_fields": "",
      "extra_info": "",
      "end_customer_client_id": "1",
      "payout_percentage": "19.9",
      "account_number": "GB33BUKB20201555555555",
      "interest_start_rule_id": "1",
      "interest_billing_frequency_rule": "1",
      "interest_billing_rule": "client",
      "billing_frequency_rule": "1",
      "monthly_payment": "100.10",
      "applied_due_date": "1",
      "lead_channel_id": "1",
      "funding_type": "invoice",
      "loan_payment_type": "annuity",
      "loan_sum": "5000.00",
      "status": "approved",
      "created_at": "2019-12-02T20:01:00.283041Z",
      "updated_at": "2019-12-02T20:01:00.283041Z",
      "closed_date": "2021-06-20",
      "type": "loan",
      "uri": "/loans/5"
    },
    {
      "id": "5",
      "start_date": "2020-06-21",
      "end_date": "2021-06-20",
      "duration_months": "12",
      "client_id": "3",
      "payout_limit": "100.10",
      "interest_day_rule": "days360",
      "arrangement_fee_percentage": "10.00",
      "arrangement_fee_fixed": "10.90",
      "arrangement_fee_type": "add",
      "handling_fee": "9.90",
      "nominal_interest": "2.5",
      "margin_interest": "5.5",
      "delay_interest": "15.5",
      "extra_payout_fields": "",
      "extra_info": "",
      "end_customer_client_id": "1",
      "payout_percentage": "19.9",
      "account_number": "GB33BUKB20201555555555",
      "interest_start_rule_id": "1",
      "interest_billing_frequency_rule": "1",
      "interest_billing_rule": "client",
      "billing_frequency_rule": "1",
      "monthly_payment": "100.10",
      "applied_due_date": "1",
      "lead_channel_id": "1",
      "funding_type": "invoice",
      "loan_payment_type": "annuity",
      "loan_sum": "5000.00",
      "status": "approved",
      "created_at": "2019-12-02T20:01:00.283041Z",
      "updated_at": "2019-12-02T20:01:00.283041Z",
      "closed_date": "2021-06-20",
      "type": "loan",
      "uri": "/loans/5"
    }
  ],
  "profile": {
    "first_name": "Andrey",
    "last_name": "Bezruk",
    "username": "thedruny@gmail.com",
    "email": "andrey.bezruk@kingmuffin.com",
    "position": "das",
    "description": "Huge fan of HTML, CSS and Javascript. Web design and open source lover."
  },
  "users": [
    {
      "id": "102",
      "user_name": "Messi",
      "deposit": "999.00",
      "invoice_date": "2020-08-27"
    },
    {
      "id": "104",
      "user_name": "Messi",
      "deposit": "999.00",
      "invoice_date": "2020-08-27"
    },
    {
      "id": "105",
      "user_name": "Messi",
      "deposit": "999.00",
      "invoice_date": "2020-08-27"
    },
    {
      "id": "105",
      "user_name": "Messi",
      "deposit": "999.00",
      "invoice_date": "2020-08-27"
    }
  ],
  "links": {
    "first": "http://localhost/api/v1/vektori/users?page[number]=1",
    "last": "http://localhost/api/v1/vektori/users?page[number]=3",
    "prev": "http://localhost/api/v1/vektori/users?page[number]=1",
    "next": "http://localhost/api/v1/vektori/users?page[number]=3"
  },
  "meta": {
    "current_page": 2,
    "from": 31,
    "last_page": 3,
    "path": "http://localhost/api/v1/vektori/users",
    "per_page": 30,
    "to": 60,
    "total": 70
  }
}
